[
    {
        "product_id":1,
        "img_url":"https://res.cloudinary.com/dcyhlyekg/image/upload/v1655949240/secondHand/product/1-1-jam-tangan_o8xt9s.jpg"
    },
    {
        "product_id":2,
        "img_url":"https://res.cloudinary.com/dcyhlyekg/image/upload/v1655949243/secondHand/product/2-2-laptop_vdwgio.jpg"
    },
    {
        "product_id":3,
        "img_url":"https://res.cloudinary.com/dcyhlyekg/image/upload/v1655949245/secondHand/product/3-3-kamera_slk5mh.jpg"
    }
]